C:\Users\dsmirnov\Desktop\ksu_prkom\Server\src\main\java\com\lk\entity\UserAddress.java
C:\Users\dsmirnov\Desktop\ksu_prkom\Server\src\main\java\com\lk\impl\UserServiceImpl.java
C:\Users\dsmirnov\Desktop\ksu_prkom\Server\src\main\java\com\lk\controller\DirectionServiceRestController.java
C:\Users\dsmirnov\Desktop\ksu_prkom\Server\src\main\java\com\lk\entity\OtherUniversityReceipt.java
C:\Users\dsmirnov\Desktop\ksu_prkom\Server\src\main\java\com\lk\service\DirectionService.java
C:\Users\dsmirnov\Desktop\ksu_prkom\Server\src\main\java\com\lk\entity\EmailReceiver.java
C:\Users\dsmirnov\Desktop\ksu_prkom\Server\src\main\java\com\lk\entity\SpecialtyDirectionality.java
C:\Users\dsmirnov\Desktop\ksu_prkom\Server\src\main\java\com\lk\entity\UniversityReceiptFilter.java
C:\Users\dsmirnov\Desktop\ksu_prkom\Server\src\main\java\com\lk\service\UserService.java
C:\Users\dsmirnov\Desktop\ksu_prkom\Server\src\main\java\com\lk\entity\LichnoeDelo.java
C:\Users\dsmirnov\Desktop\ksu_prkom\Server\src\main\java\com\lk\entity\User.java
C:\Users\dsmirnov\Desktop\ksu_prkom\Server\src\main\java\com\lk\entity\UserRepresentative.java
C:\Users\dsmirnov\Desktop\ksu_prkom\Server\src\main\java\com\lk\persistence\HibernateUtil.java
C:\Users\dsmirnov\Desktop\ksu_prkom\Server\src\main\java\com\lk\entity\EducationForm.java
C:\Users\dsmirnov\Desktop\ksu_prkom\Server\src\main\java\com\lk\entity\RegistrationSecretQuestion.java
C:\Users\dsmirnov\Desktop\ksu_prkom\Server\src\main\java\com\lk\entity\UserEducation.java
C:\Users\dsmirnov\Desktop\ksu_prkom\Server\src\main\java\com\lk\persistence\HtmlMailSenderAddressList.java
C:\Users\dsmirnov\Desktop\ksu_prkom\Server\src\main\java\com\lk\entity\Token.java
C:\Users\dsmirnov\Desktop\ksu_prkom\Server\src\main\java\com\lk\service\UserProfileService.java
C:\Users\dsmirnov\Desktop\ksu_prkom\Server\src\main\java\com\lk\entity\Response.java
C:\Users\dsmirnov\Desktop\ksu_prkom\Server\src\main\java\com\lk\controller\UserServiceRestController.java
C:\Users\dsmirnov\Desktop\ksu_prkom\Server\src\main\java\com\lk\entity\Institute.java
C:\Users\dsmirnov\Desktop\ksu_prkom\Server\src\main\java\com\lk\controller\UserProfileServiceRestController.java
C:\Users\dsmirnov\Desktop\ksu_prkom\Server\src\main\java\com\lk\entity\UserRegistration.java
C:\Users\dsmirnov\Desktop\ksu_prkom\Server\src\main\java\com\lk\impl\DirectionServiceImpl.java
C:\Users\dsmirnov\Desktop\ksu_prkom\Server\src\main\java\com\lk\entity\Direction.java
C:\Users\dsmirnov\Desktop\ksu_prkom\Server\src\main\java\com\lk\entity\Educations.java
C:\Users\dsmirnov\Desktop\ksu_prkom\Server\src\main\java\com\lk\entity\UserDocument.java
C:\Users\dsmirnov\Desktop\ksu_prkom\Server\src\main\java\com\lk\entity\Education.java
C:\Users\dsmirnov\Desktop\ksu_prkom\Server\src\main\java\com\lk\impl\UserProfileServiceImpl.java
C:\Users\dsmirnov\Desktop\ksu_prkom\Server\src\main\java\com\lk\persistence\Authentification.java
